# Blender MTL File: 'cube.blend'
# Material Count: 6

newmtl Material.Flower
Ns 900.000000
Ka 1.000000 1.000000 1.000000
Kd 0.800000 0.800000 0.800000
Ks 0.000000 0.000000 0.000000
Ke 0.0 0.0 0.0
Ni 1.450000
d 1.000000
illum 1
map_Kd flower.jpg

newmtl Material.GreenDragon
Ns 900.000000
Ka 1.000000 1.000000 1.000000
Kd 0.800000 0.800000 0.800000
Ks 0.000000 0.000000 0.000000
Ke 0.0 0.0 0.0
Ni 1.450000
d 1.000000
illum 1
map_Kd greendragon.jpg

newmtl Material.MagicStar
Ns 900.000000
Ka 1.000000 1.000000 1.000000
Kd 0.800000 0.800000 0.800000
Ks 0.000000 0.000000 0.000000
Ke 0.0 0.0 0.0
Ni 1.450000
d 1.000000
illum 1
map_Kd magic-star.jpg

newmtl Material.Moon
Ns 900.000000
Ka 1.000000 1.000000 1.000000
Kd 0.800000 0.800000 0.800000
Ks 0.000000 0.000000 0.000000
Ke 0.0 0.0 0.0
Ni 1.450000
d 1.000000
illum 1
map_Kd celestial.jpg

newmtl Material.TreeofLife
Ns 900.000000
Ka 1.000000 1.000000 1.000000
Kd 0.800000 0.800000 0.800000
Ks 0.000000 0.000000 0.000000
Ke 0.0 0.0 0.0
Ni 1.450000
d 1.000000
illum 1
map_Kd treeolife.jpg

newmtl Material.Unicorn
Ns 900.000000
Ka 1.000000 1.000000 1.000000
Kd 0.800000 0.800000 0.800000
Ks 0.000000 0.000000 0.000000
Ke 0.0 0.0 0.0
Ni 1.450000
d 1.000000
illum 1
map_Kd unicorn.jpg
